%YAML 1.1
%TAG !u! tag:unity3d.com,2011:
--- !u!114 &11400000
MonoBehaviour:
  m_ObjectHideFlags: 0
  m_CorrespondingSourceObject: {fileID: 0}
  m_PrefabInstance: {fileID: 0}
  m_PrefabAsset: {fileID: 0}
  m_GameObject: {fileID: 0}
  m_Enabled: 1
  m_EditorHideFlags: 0
  m_Script: {fileID: 11500000, guid: 935b2d31e2fdbe642bb772dbc47bcd20, type: 3}
  m_Name: UICredits
  m_EditorClassIdentifier: 
  material: {fileID: 2100000, guid: c2876477ac4fcd34fa0562eb5f520703, type: 2}
  enemyMaterial: {fileID: 0}
  faceName: CreditsFace
  effect: {fileID: 11400000, guid: 22dff92eb2e652e479291f60409173b8, type: 2}
