%YAML 1.1
%TAG !u! tag:unity3d.com,2011:
--- !u!1 &8802155883657855364
GameObject:
  m_ObjectHideFlags: 0
  m_CorrespondingSourceObject: {fileID: 0}
  m_PrefabInstance: {fileID: 0}
  m_PrefabAsset: {fileID: 0}
  serializedVersion: 6
  m_Component:
  - component: {fileID: 8802155883657855365}
  - component: {fileID: 8802155883657855366}
  - component: {fileID: 8802155883657855360}
  - component: {fileID: 8802155883657855367}
  m_Layer: 0
  m_Name: Player
  m_TagString: Untagged
  m_Icon: {fileID: 0}
  m_NavMeshLayer: 0
  m_StaticEditorFlags: 0
  m_IsActive: 1
--- !u!4 &8802155883657855365
Transform:
  m_ObjectHideFlags: 0
  m_CorrespondingSourceObject: {fileID: 0}
  m_PrefabInstance: {fileID: 0}
  m_PrefabAsset: {fileID: 0}
  m_GameObject: {fileID: 8802155883657855364}
  m_LocalRotation: {x: 0, y: 0, z: 0, w: 1}
  m_LocalPosition: {x: 0, y: 0, z: 0}
  m_LocalScale: {x: 1, y: 1, z: 1}
  m_ConstrainProportionsScale: 0
  m_Children: []
  m_Father: {fileID: 0}
  m_RootOrder: 0
  m_LocalEulerAnglesHint: {x: 0, y: 0, z: 0}
--- !u!114 &8802155883657855366
MonoBehaviour:
  m_ObjectHideFlags: 0
  m_CorrespondingSourceObject: {fileID: 0}
  m_PrefabInstance: {fileID: 0}
  m_PrefabAsset: {fileID: 0}
  m_GameObject: {fileID: 8802155883657855364}
  m_Enabled: 1
  m_EditorHideFlags: 0
  m_Script: {fileID: 11500000, guid: 62899f850307741f2a39c98a8b639597, type: 3}
  m_Name: 
  m_EditorClassIdentifier: 
  m_Actions: {fileID: -944628639613478452, guid: 86371400cc398d74c84f45f3cc4f2763,
    type: 3}
  m_NotificationBehavior: 0
  m_UIInputModule: {fileID: 0}
  m_DeviceLostEvent:
    m_PersistentCalls:
      m_Calls: []
  m_DeviceRegainedEvent:
    m_PersistentCalls:
      m_Calls: []
  m_ControlsChangedEvent:
    m_PersistentCalls:
      m_Calls: []
  m_ActionEvents: []
  m_NeverAutoSwitchControlSchemes: 0
  m_DefaultControlScheme: 
  m_DefaultActionMap: PlayerControls
  m_SplitScreenIndex: -1
  m_Camera: {fileID: 0}
--- !u!114 &8802155883657855360
MonoBehaviour:
  m_ObjectHideFlags: 0
  m_CorrespondingSourceObject: {fileID: 0}
  m_PrefabInstance: {fileID: 0}
  m_PrefabAsset: {fileID: 0}
  m_GameObject: {fileID: 8802155883657855364}
  m_Enabled: 1
  m_EditorHideFlags: 0
  m_Script: {fileID: 11500000, guid: cc1d23ded7a523344b8ad6cf2019d729, type: 3}
  m_Name: 
  m_EditorClassIdentifier: 
  selectedUnitPrefab: {fileID: 7052817240789800351, guid: d2e7c839c8557ef40bc76461352aa50f,
    type: 3}
  selectableTilePrefab: {fileID: 7052817240789800351, guid: 548c288c71f759d4ca9e4287be2059ba,
    type: 3}
  selectaedTilePrefab: {fileID: 0}
  untangibleCloneMaterial: {fileID: 2100000, guid: cb27b7a5ba4ba3d49a708452cb1704a4,
    type: 2}
  untangibleCloneMaterialEnemy: {fileID: 2100000, guid: 1963665071564644a98e3e36ac4dce84,
    type: 2}
--- !u!114 &8802155883657855367
MonoBehaviour:
  m_ObjectHideFlags: 0
  m_CorrespondingSourceObject: {fileID: 0}
  m_PrefabInstance: {fileID: 0}
  m_PrefabAsset: {fileID: 0}
  m_GameObject: {fileID: 8802155883657855364}
  m_Enabled: 1
  m_EditorHideFlags: 0
  m_Script: {fileID: 11500000, guid: 8954450725b662f43b3d4353933bb69c, type: 3}
  m_Name: 
  m_EditorClassIdentifier: 
  player: {fileID: 8802155883657855360}
  arrowPointerPrefab: {fileID: 2501165477101095484, guid: dbc1ac00a0f6ca14194ae4be0250b8b8,
    type: 3}
  layerMask:
    serializedVersion: 2
    m_Bits: 119
  maxRayDistanceFromCamera: 50
