%YAML 1.1
%TAG !u! tag:unity3d.com,2011:
--- !u!114 &11400000
MonoBehaviour:
  m_ObjectHideFlags: 0
  m_CorrespondingSourceObject: {fileID: 0}
  m_PrefabInstance: {fileID: 0}
  m_PrefabAsset: {fileID: 0}
  m_GameObject: {fileID: 0}
  m_Enabled: 1
  m_EditorHideFlags: 0
  m_Script: {fileID: 11500000, guid: 935b2d31e2fdbe642bb772dbc47bcd20, type: 3}
  m_Name: BiteFace
  m_EditorClassIdentifier: 
  material: {fileID: 2100000, guid: 5163be0a4a4dab1468c0c1e84aea99fa, type: 2}
  enemyMaterial: {fileID: 2100000, guid: 51f1d0cda0e7f2348876c4374a367d17, type: 2}
  faceName: Bite
  effect: {fileID: 11400000, guid: ff06f17f655f84e42afcf44a39caced2, type: 2}
