{
    "name": "PlayersControls",
    "maps": [
        {
            "name": "PlayerControls",
            "id": "80831d28-648d-4e3d-b9e9-03546f6cf490",
            "actions": [
                {
                    "name": "Move",
                    "type": "Value",
                    "id": "26a4fbf3-d02c-40c2-ab6d-93bb22842d52",
                    "expectedControlType": "Vector2",
                    "processors": "",
                    "interactions": "",
                    "initialStateCheck": true
                },
                {
                    "name": "Point",
                    "type": "Value",
                    "id": "67c119a1-09d8-4ba8-8c87-b09a92b621cb",
                    "expectedControlType": "Vector2",
                    "processors": "",
                    "interactions": "",
                    "initialStateCheck": true
                },
                {
                    "name": "LeftClick",
                    "type": "Value",
                    "id": "d494ff1e-d747-4f76-80e2-9bc41b21e4d0",
                    "expectedControlType": "Button",
                    "processors": "",
                    "interactions": "",
                    "initialStateCheck": true
                },
                {
                    "name": "Pause",
                    "type": "Button",
                    "id": "ca70cba6-069b-4cb1-b557-1fa93b3ba84b",
                    "expectedControlType": "Button",
                    "processors": "",
                    "interactions": "",
                    "initialStateCheck": false
                },
                {
                    "name": "ArrowPoint",
                    "type": "Button",
                    "id": "441779b8-7540-4009-a455-a79c79a2426a",
                    "expectedControlType": "Button",
                    "processors": "",
                    "interactions": "",
                    "initialStateCheck": false
                }
            ],
            "bindings": [
                {
                    "name": "WASD",
                    "id": "5a26b00b-a606-40a2-a9e7-f523299a7bae",
                    "path": "2DVector",
                    "interactions": "",
                    "processors": "",
                    "groups": "",
                    "action": "Move",
                    "isComposite": true,
                    "isPartOfComposite": false
                },
                {
                    "name": "up",
                    "id": "b7c16e70-0522-4705-90d4-b46173104e05",
                    "path": "<Keyboard>/w",
                    "interactions": "",
                    "processors": "",
                    "groups": "",
                    "action": "Move",
                    "isComposite": false,
                    "isPartOfComposite": true
                },
                {
                    "name": "down",
                    "id": "532c19ba-0d8a-4e82-9890-a507036f702a",
                    "path": "<Keyboard>/s",
                    "interactions": "",
                    "processors": "",
                    "groups": "",
                    "action": "Move",
                    "isComposite": false,
                    "isPartOfComposite": true
                },
                {
                    "name": "left",
                    "id": "e4500cfe-1806-4c0c-a383-128bbcf8b2f3",
                    "path": "<Keyboard>/a",
                    "interactions": "",
                    "processors": "",
                    "groups": "",
                    "action": "Move",
                    "isComposite": false,
                    "isPartOfComposite": true
                },
                {
                    "name": "right",
                    "id": "eaecfc74-b2a2-47be-b6aa-1f9787a5794c",
                    "path": "<Keyboard>/d",
                    "interactions": "",
                    "processors": "",
                    "groups": "",
                    "action": "Move",
                    "isComposite": false,
                    "isPartOfComposite": true
                },
                {
                    "name": "",
                    "id": "4c28e289-5355-40a8-85b8-cc7d73f5546a",
                    "path": "<Mouse>/position",
                    "interactions": "",
                    "processors": "",
                    "groups": "",
                    "action": "Point",
                    "isComposite": false,
                    "isPartOfComposite": false
                },
                {
                    "name": "",
                    "id": "c17d942d-45a6-4802-9d5c-fe4b5e0c114a",
                    "path": "<Mouse>/leftButton",
                    "interactions": "",
                    "processors": "",
                    "groups": "",
                    "action": "LeftClick",
                    "isComposite": false,
                    "isPartOfComposite": false
                },
                {
                    "name": "",
                    "id": "7cc97344-f3cf-439b-ad8b-b52fe001efa7",
                    "path": "<Keyboard>/escape",
                    "interactions": "",
                    "processors": "",
                    "groups": "",
                    "action": "Pause",
                    "isComposite": false,
                    "isPartOfComposite": false
                },
                {
                    "name": "",
                    "id": "59d2974a-8968-4a6d-b1fd-1880ba6c047e",
                    "path": "<Keyboard>/enter",
                    "interactions": "",
                    "processors": "",
                    "groups": "",
                    "action": "Pause",
                    "isComposite": false,
                    "isPartOfComposite": false
                },
                {
                    "name": "",
                    "id": "6f27bc45-f999-42b2-99ab-35e905e26d24",
                    "path": "<Keyboard>/ctrl",
                    "interactions": "",
                    "processors": "",
                    "groups": "",
                    "action": "ArrowPoint",
                    "isComposite": false,
                    "isPartOfComposite": false
                }
            ]
        }
    ],
    "controlSchemes": []
}