%YAML 1.1
%TAG !u! tag:unity3d.com,2011:
--- !u!114 &11400000
MonoBehaviour:
  m_ObjectHideFlags: 0
  m_CorrespondingSourceObject: {fileID: 0}
  m_PrefabInstance: {fileID: 0}
  m_PrefabAsset: {fileID: 0}
  m_GameObject: {fileID: 0}
  m_Enabled: 1
  m_EditorHideFlags: 0
  m_Script: {fileID: 11500000, guid: 43d0a7f7bce4d9f4c8c3c1249fadb0e0, type: 3}
  m_Name: ArrowAttack
  m_EditorClassIdentifier: 
  effectName: Arrow Attack
  effectType: 0
  effectPrefab: {fileID: 6281669124287957226, guid: 6dfb26d946af6e549ba9fc2a2f7011ea,
    type: 3}
  basedOnMovedDirection: 1
