%YAML 1.1
%TAG !u! tag:unity3d.com,2011:
--- !u!114 &11400000
MonoBehaviour:
  m_ObjectHideFlags: 0
  m_CorrespondingSourceObject: {fileID: 0}
  m_PrefabInstance: {fileID: 0}
  m_PrefabAsset: {fileID: 0}
  m_GameObject: {fileID: 0}
  m_Enabled: 1
  m_EditorHideFlags: 0
  m_Script: {fileID: 11500000, guid: 43d0a7f7bce4d9f4c8c3c1249fadb0e0, type: 3}
  m_Name: BasicHeal
  m_EditorClassIdentifier: 
  effectName: Basic Heal
  effectType: 2
  effectPrefab: {fileID: 4718131190165376799, guid: 04ee57693c8655d44a02743803d23d3f,
    type: 3}
  basedOnMovedDirection: 0
